…
We can read this file in R as follows:

``` r
# library(data.table)
# counts = data.frame(data.table::rbindlist(lapply(files_csv,data.table::fread))) #DT's quick way to read the files 
counts = map_dfr(files_csv, read_csv,show_col_types = FALSE)
dim(counts)
#> [1] 230307     10
counts
#> # A tibble: 230,307 × 10
#>    area    count endTime             latitude location longitude provider siteID
#>    <chr>   <dbl> <dttm>                 <dbl> <chr>        <dbl> <chr>    <chr> 
#>  1 Aberde…    61 2023-06-14 00:00:00     57.1 A956 We…     -2.09 Aberdee… ABE65…
#>  2 Aberde…    26 2023-06-14 00:00:00     57.2 Dyce Dr…     -2.20 Aberdee… ABE918
#>  3 Aberde…    18 2023-06-14 00:00:00     57.2 Dyce Dr…     -2.22 Aberdee… ABE397
#>  4 Aberde…   158 2023-06-14 00:00:00     57.2 Ellon R…     -2.09 Aberdee… ABE920
#>  5 Aberde…   157 2023-06-14 00:00:00     57.1 Shell C…     -2.10 Aberdee… ABE229
#>  6 Aberde…   132 2023-06-14 00:00:00     57.2 Tillydr…     -2.11 Aberdee… ABE899
#>  7 Aberde…   395 2023-06-14 00:00:00     57.1 Deeside…     -2.10 Aberdee… ABE235
#>  8 Aberde…    20 2023-06-14 00:00:00     57.2 Farburn…     -2.17 Aberdee… ABE745
#>  9 Aberde…    91 2023-06-14 00:00:00     57.2 Parkway…     -2.10 Aberdee… ABE894
#> 10 Aberde…    39 2023-06-14 00:00:00     57.2 Site B …     -2.16 Aberdee… ABE288
#> # ℹ 230,297 more rows
#> # ℹ 2 more variables: startTime <dttm>, usmart_id <chr>
```
…
Here we calculate some statistics for the whole year including mean
(Average Annual Daily Flow), median daily flow, minimum and maximum
daily flows,

``` r
AADF_sites = clean_counts |> 
  summarise(across(count,list(mean = mean,
                              median = median,
                              min = min,
                              max = max)),.by = siteID)

AADF_sites
#> # A tibble: 383 × 5
#>    siteID  count_mean count_median count_min count_max
#>    <chr>        <dbl>        <dbl>     <dbl>     <dbl>
#>  1 ABE6535       19.9           18         1        50
#>  2 ABE896        44.1           43         0       195
#>  3 ABE6545       34.3           32         2        84
#>  4 ABE895        86.0           74         0       288
#>  5 ABE918        15.6           15         0        39
#>  6 ABE122        16.6           16         0        57
#>  7 ABE123        13.8           12         0        49
#>  8 ABE400        43.5           33         2       150
#>  9 ABE288        12.5            9         0        81
#> 10 ABE893        43.3           43         0        93
#> # ℹ 373 more rows
```
…
``` r
ADF_dtype = clean_counts |> 
  mutate(d.type = case_when(as.Date(startTime) %in% scot_bank_holidays~"Bank Holiday",
                            wday(startTime,week_start = 1)<6~"Weekday",
                            TRUE~"Weekend")) |> 
  summarise(across(count,list(mean = mean,
                              median = median,
                              min = min,
                              max = max)),
            .by = c(siteID,d.type))

ADF_dtype
#> # A tibble: 1,149 × 6
#>    siteID  d.type  count_mean count_median count_min count_max
#>    <chr>   <chr>        <dbl>        <dbl>     <dbl>     <dbl>
#>  1 ABE6535 Weekday       23.6           22         6        50
#>  2 ABE896  Weekday       46.4           46         2       101
#>  3 ABE6545 Weekday       40.3           40         2        84
#>  4 ABE895  Weekday       78.1           65         1       247
#>  5 ABE918  Weekday       19.5           20         0        39
#>  6 ABE122  Weekday       17             16         0        50
#>  7 ABE123  Weekday       12.7           11         0        45
#>  8 ABE400  Weekday       40.1           31         2       110
#>  9 ABE288  Weekday       11.8            8         0        62
#> 10 ABE893  Weekday       52.6           52         6        93
#> # ℹ 1,139 more rows
```
…
A `sf` object is created from the `clean_counts` data frame.

``` r
sf_counts = clean_counts |>
  select(siteID,latitude,longitude,provider,location) |>
  unique() |>
  st_as_sf(coords = c("longitude","latitude"),crs = 4326)
sf_counts
#> Simple feature collection with 383 features and 3 fields
#> Geometry type: POINT
#> Dimension:     XY
#> Bounding box:  xmin: -7.307251 ymin: 54.91291 xmax: -1.15021 ymax: 60.1511
#> Geodetic CRS:  WGS 84
#> # A tibble: 383 × 4
#>    siteID  provider              location                          geometry
#>  * <chr>   <chr>                 <chr>                          <POINT [°]>
#>  1 ABE6535 Aberdeen City Council A96 Auchmill Road (W… (-2.167846 57.17724)
#>  2 ABE896  Aberdeen City Council F&B Way nr Train Sta…  (-2.19316 57.20704)
#>  3 ABE6545 Aberdeen City Council A9119 Queens Road (E… (-2.157131 57.14095)
#>  4 ABE895  Aberdeen City Council Beach Esplanade        (-2.08537 57.17429)
#>  5 ABE918  Aberdeen City Council Dyce Drive 1- North …  (-2.20114 57.19337)
#>  6 ABE122  Aberdeen City Council Maidencraig 2          (-2.18041 57.14887)
#>  7 ABE123  Aberdeen City Council Maidencraig 3           (-2.18312 57.1489)
#>  8 ABE400  Aberdeen City Council Seaton Park           (-2.108318 57.17168)
#>  9 ABE288  Aberdeen City Council Site B Heathryfold C…  (-2.15638 57.17083)
#> 10 ABE893  Aberdeen City Council Wellington Rd          (-2.08951 57.11453)
#> # ℹ 373 more rows
```
…
### Approach A

The nearest feature is joined to each point location

``` r
sf_counts_joined = st_join(sf_counts_selected,rnet_commute,join = st_nearest_feature)
sf_counts_joined
#> Simple feature collection with 29 features and 7 fields
#> Geometry type: POINT
#> Dimension:     XY
#> Bounding box:  xmin: -3.30653 ymin: 55.91748 xmax: -3.13835 ymax: 55.9684
#> Geodetic CRS:  WGS 84
#> # A tibble: 29 × 8
#>    siteID   provider location            geometry bicycle bicycle_go_dutch
#>  * <chr>    <chr>    <chr>            <POINT [°]>   <dbl>            <dbl>
#>  1 EDH5550… City of… Seafiel… (-3.14628 55.96824)       0                1
#>  2 EDH5550… City of… Hawkhil…  (-3.16235 55.9639)       0                1
#>  3 EDH0030  City of… Dalry R… (-3.22398 55.94096)       2                6
#>  4 EDH0024  City of… Rosebur… (-3.24277 55.94478)       2                7
#>  5 EDH0026  City of… Stenhou… (-3.26913 55.93332)       3               20
#>  6 EDH0037  City of… Whiteho…  (-3.1999 55.93171)       2               18
#>  7 EDH0045  City of… Melvill… (-3.20034 55.94188)       3                9
#>  8 EDH5550… City of… Carrick…  (-3.26381 55.9417)       4               13
#>  9 EDH0022  City of… North M… (-3.18507 55.94154)       5               28
#> 10 EDH0035  City of… A90 Dea… (-3.21483 55.95377)       7               21
#> # ℹ 19 more rows
#> # ℹ 2 more variables: Gradient <dbl>, Quietness <dbl>
```
…
